<svg enable-background="new 0 0 60 60" height="60" viewBox="0 0 60 60" width="60" xmlns="http://www.w3.org/2000/svg">
	<g fill="#4f4f4f">
		<path d="m18.66 48.47c-1.04 0-1.89-.85-1.89-1.89v-8.98l-.41-.26c-.16-.1-.3-.22-.46-.37l-6.1-5.03h-.99c-3.4 0-6.17-2.77-6.17-6.17v-12.72c0-.29.23-.52.52-.52h12.74c2.93 0 5.6 1.49 7.14 3.98l4.47 10.14h27.23c1.04 0 1.89.85 1.89 1.89v18.03c0 1.04-.85 1.89-1.89 1.89h-36.08zm-.85-18.63 2.61 2.59c.6.58.94 1.35.96 2.18s-.29 1.62-.87 2.22l-.09.09c-.48.48-1.11.78-1.79.87l-.83.1-.04 8.42c0 .61.49 1.11 1.1 1.11l35.62.04c.61 0 1.1-.49 1.11-1.1l.04-17.56c0-.61-.49-1.11-1.1-1.11l-35.62-.04c-.61 0-1.11.49-1.11 1.1v1.09zm-14.17-4.08c0 2.83 2.3 5.14 5.14 5.14h1.17c.12 0 .24.04.33.12l6.3 5.19c.41.38.96.59 1.54.59s1.13-.22 1.56-.61c.42-.39.65-.94.65-1.5 0-.57-.24-1.12-.65-1.5l-8.09-8.02.74-.75 4.13 4.1.59-.96c.35-.56.94-.9 1.6-.9h7.73l-4.24-9.61c-1.38-2.2-3.71-3.49-6.28-3.49h-12.22z" />
		<path d="m18.42 19.16c-.86-.87-2.07-1.37-3.3-1.37h-1.2v-1.05h1.21c1.5 0 2.97.61 4.02 1.67l.68.68-.74.74z" />
		<text x="24" y="42" style="font-size: 12px;">
			SAR
		</text>
	</g>
</svg>
